..........
----------------------------------------------------------------------
Ran 10 tests in 0.003s

OK
Name               Stmts   Miss Branch BrPart  Cover   Missing
--------------------------------------------------------------
Diplomacy.py          73      0     48      0   100%
TestDiplomacy.py      56      0      0      0   100%
--------------------------------------------------------------
TOTAL                129      0     48      0   100%
