.....
----------------------------------------------------------------------
Ran 5 tests in 0.001s

OK
Name               Stmts   Miss Branch BrPart  Cover   Missing
--------------------------------------------------------------
Diplomacy.py          60      0     42      0   100%
TestDiplomacy.py      29      0      2      1    97%   35->exit
--------------------------------------------------------------
TOTAL                 89      0     44      1    99%
