..........
----------------------------------------------------------------------
Ran 10 tests in 0.002s

OK
Name               Stmts   Miss Branch BrPart  Cover   Missing
--------------------------------------------------------------
Diplomacy.py          72      0     30      0   100%
TestDiplomacy.py      56      0      0      0   100%
--------------------------------------------------------------
TOTAL                128      0     30      0   100%
